%YAML 1.1
%TAG !u! tag:unity3d.com,2011:
--- !u!1 &683423916589099547
GameObject:
  m_ObjectHideFlags: 0
  m_CorrespondingSourceObject: {fileID: 0}
  m_PrefabInstance: {fileID: 0}
  m_PrefabAsset: {fileID: 0}
  serializedVersion: 6
  m_Component:
  - component: {fileID: 683423916589099546}
  - component: {fileID: 683423916589099525}
  - component: {fileID: 2044452130}
  m_Layer: 0
  m_Name: GameSetUp
  m_TagString: GameController
  m_Icon: {fileID: 0}
  m_NavMeshLayer: 0
  m_StaticEditorFlags: 0
  m_IsActive: 1
--- !u!4 &683423916589099546
Transform:
  m_ObjectHideFlags: 0
  m_CorrespondingSourceObject: {fileID: 0}
  m_PrefabInstance: {fileID: 0}
  m_PrefabAsset: {fileID: 0}
  m_GameObject: {fileID: 683423916589099547}
  m_LocalRotation: {x: 0, y: 0, z: 0, w: 1}
  m_LocalPosition: {x: 425.30048, y: 141.71532, z: -945.5595}
  m_LocalScale: {x: 1, y: 1, z: 1}
  m_Children: []
  m_Father: {fileID: 0}
  m_RootOrder: 0
  m_LocalEulerAnglesHint: {x: 0, y: 0, z: 0}
--- !u!114 &683423916589099525
MonoBehaviour:
  m_ObjectHideFlags: 0
  m_CorrespondingSourceObject: {fileID: 0}
  m_PrefabInstance: {fileID: 0}
  m_PrefabAsset: {fileID: 0}
  m_GameObject: {fileID: 683423916589099547}
  m_Enabled: 1
  m_EditorHideFlags: 0
  m_Script: {fileID: 11500000, guid: d362f909899b9a04b8269c4f2c093888, type: 3}
  m_Name: 
  m_EditorClassIdentifier: 
  playerAmt: 3
  numberOfRecipe: 3
  foodSortList: 
  recipe: 
  fab:
  - {fileID: 956820664343284145, guid: 65c80a3d2c6678d45ad2741f4cec41a6, type: 3}
  - {fileID: 3542781002700027407, guid: b1253fe604171ac438d02f7d68f370da, type: 3}
  - {fileID: 3415592827381720865, guid: 47ca5700f130a5545875ab37ccee6d84, type: 3}
  - {fileID: 5696040508305223343, guid: c01747a2dcc7d9c4caa2ad31d09438a4, type: 3}
  - {fileID: 668841552069815531, guid: 4a05daaab59ac674db7e46b56c88cdfb, type: 3}
  breadup: {fileID: 3370240132214537837, guid: f15606cc905949146a269d90d79f338e, type: 3}
  breaddown: {fileID: 4526168308457819882, guid: a8a0994f5244d174088c553cf3d31e1f,
    type: 3}
  gameDuration: 100
  userId: 0
  point: 0
  spawnpoint: {fileID: 0}
  timeText: {fileID: 0}
  pointText: {fileID: 0}
  foodIcon: {fileID: 0}
  resetButton: {fileID: 0}
--- !u!114 &2044452130
MonoBehaviour:
  m_ObjectHideFlags: 0
  m_CorrespondingSourceObject: {fileID: 0}
  m_PrefabInstance: {fileID: 0}
  m_PrefabAsset: {fileID: 0}
  m_GameObject: {fileID: 683423916589099547}
  m_Enabled: 1
  m_EditorHideFlags: 0
  m_Script: {fileID: 11500000, guid: 1f7c57fed4435484aba140cdb0b4caa5, type: 3}
  m_Name: 
  m_EditorClassIdentifier: 
